r\c,1000,4960,8920,12880,16840,20800,24760,28720,32680,36640,40600,44560,48520,52480,56440,60400,64360,68320,72280,76240,80200,84160,88120,92080,96040,100000
c1,2.42132,45.858,87.8091,184.254,312.971,478.448,677.525,907.474,1178.74,1474.64,1811.45,2178.85,2583.32,3022.4,3503.11,4038.47,4565.74,5161.98,5772.84,6389.15,7083.2,7777.15,8529.35,9320.29,10132.3,10982.4
c2,1.17661,27.5698,88.8556,185.052,315.43,480.983,685.789,920.018,1189.31,1492.51,1831.83,2210.29,2618.23,3057.52,3522.71,4026.45,4565.14,5144.88,5766.2,6403.3,7081.76,7831.34,8593.84,9341.31,10157.6,11020.2
c3,1.18364,27.4584,88.2289,183.494,313.277,477.537,675.981,912.588,1181.21,1482.71,1822.26,2194.65,2596.17,3034.15,3510.24,4027.83,4570.55,5143.43,5757.93,6409.81,7104.24,7821.95,8577.15,9353.97,10190,11074.1
c4,1.14937,27.2185,87.9244,183.037,312.461,477.262,675.643,909.028,1175.68,1498.52,1845.52,2187.79,2594.23,3028.08,3503.38,4011.45,4555.51,5127.85,5735.64,6378.38,7062.92,7782.51,8524.77,9317.75,10133.3,10921.8
c5,1.12975,27.2263,87.8217,182.736,311.124,472.929,664.636,901.87,1164.78,1465.76,1796.37,2168.24,2567.18,3002.89,3474.25,3968.71,4490.24,5059.9,5677.4,6309.02,6998.94,7710.18,8461.68,9237.8,10066.4,10915.3
c6,1.16536,27.3052,88.0843,181.321,307.317,471.644,669.416,906.745,1163.01,1469.97,1805.53,2156.65,2550.99,3000.67,3452.1,3963.1,4483.36,5068.46,5674.2,6309.07,6987.24,7695.07,8439.09,9188.02,10019.9,10854.4
